<?xml version="1.0" encoding="utf-8"?>
<!-- Generator: Adobe Illustrator 20.0.0, SVG Export Plug-In . SVG Version: 6.00 Build 0)  -->
<svg version="1.1" id="Layer_1" xmlns="http://www.w3.org/2000/svg" xmlns:xlink="http://www.w3.org/1999/xlink" x="0px" y="0px"
	 viewBox="0 0 36 36" style="enable-background:new 0 0 36 36;" xml:space="preserve">
<style type="text/css">
	.st0{fill:#FFFFFF;}
</style>
<g>
	<g>
		<path class="st0" d="M9.2,16h6.3v-4.6H9.2V16z M26.9,8.3H5.9v2.5H2.2v14.1c0,1.6,1.6,2.9,3.3,2.9h1.1l24.1,0
			c1.7,0,3.1-1.3,3.1-2.9v-9.3L26.9,8.3z M5.9,26.6H5.5c-1.1,0-2.2-0.8-2.2-1.8v-13h2.6V26.6z M17.6,11.1H25v1.1h-7.4V11.1z
			 M17.6,13.2H25v1.1h-7.4V13.2z M17.6,15.3H25v1.1h-7.4V15.3z M8.1,10.4h8.5v6.7H8.1V10.4z M31.6,26.3H8.4v-1.1h23.2V26.3z
			 M31.6,24.5H8.4v-1.1h23.2V24.5z M31.6,22.8H8.4v-1.1h23.2V22.8z M31.6,21H8.4v-1.1h23.2V21z M31.6,19.2H8.4v-1.1h23.2V19.2z
			 M27.2,15.3v-5.1l4.9,5.1H27.2z"/>
	</g>
</g>
</svg>
