<?xml version="1.0" encoding="utf-8"?>
<!-- Generator: Adobe Illustrator 20.0.0, SVG Export Plug-In . SVG Version: 6.00 Build 0)  -->
<svg version="1.1" id="Layer_1" xmlns="http://www.w3.org/2000/svg" xmlns:xlink="http://www.w3.org/1999/xlink" x="0px" y="0px"
	 viewBox="0 0 982.2 149.5" style="enable-background:new 0 0 982.2 149.5;" xml:space="preserve">
<style type="text/css">
	.st0{fill:#B7A520;}
</style>
<g>
	<path class="st0" d="M505.6,134.4h-2.2c-0.6,0-1,0.5-1,1c0,0.6,0.5,1,1,1h2.2c0.6,0,1-0.5,1-1C506.6,134.9,506.1,134.4,505.6,134.4
		z"/>
	<path class="st0" d="M515.9,126.9h2.2c0.6,0,1-0.5,1-1c0-0.6-0.5-1-1-1h-2.2c-0.6,0-1,0.5-1,1C514.9,126.4,515.3,126.9,515.9,126.9
		z"/>
	<path class="st0" d="M501.6,149.5v-19c0-0.6-0.5-1-1-1c-0.6,0-1,0.5-1,1v19H501.6z"/>
	<path class="st0" d="M515.9,136.4h2.2c0.6,0,1-0.5,1-1c0-0.6-0.5-1-1-1h-2.2c-0.6,0-1,0.5-1,1C514.9,136,515.3,136.4,515.9,136.4z"
		/>
	<path class="st0" d="M515.9,117.3h2.2c0.6,0,1-0.5,1-1c0-0.6-0.5-1-1-1h-2.2c-0.6,0-1,0.5-1,1C514.9,116.9,515.3,117.3,515.9,117.3
		z"/>
	<path class="st0" d="M500.4,124.3c0,0.6,0.5,1,1,1h3.2c0.6,0,1-0.5,1-1v-9.9c0-0.6-0.5-1-1-1h-3.2c-0.6,0-1,0.5-1,1V124.3z
		 M502.4,115.4h1.2v7.9h-1.2V115.4z"/>
	<path class="st0" d="M476.4,30.1c-0.3,0.5-0.1,1.1,0.4,1.4l4.9,2.9c0.2,0.1,0.3,0.1,0.5,0.1c0.3,0,0.7-0.2,0.9-0.5
		c0.3-0.5,0.1-1.1-0.4-1.4l-4.9-2.9C477.3,29.5,476.7,29.6,476.4,30.1z"/>
	<path class="st0" d="M504.6,96.5h-3.2c-0.6,0-1,0.5-1,1v9.9c0,0.6,0.5,1,1,1h3.2c0.6,0,1-0.5,1-1v-9.9
		C505.6,96.9,505.2,96.5,504.6,96.5z M503.6,106.4h-1.2v-7.9h1.2V106.4z"/>
	<path class="st0" d="M495.5,134.4c-0.6,0-1,0.5-1,1c0,0.6,0.5,1,1,1h2.2c0.6,0,1-0.5,1-1c0-0.6-0.5-1-1-1H495.5z"/>
	<path class="st0" d="M863.4,127c-2.5-3.7-6.6-5.9-11.1-5.9c-2,0-3.8,0.4-5.5,1.2c0,0,0,0,0-0.1c-2.3-3.3-6-5.2-10-5.2
		c-3.1-4.6-8.1-7.4-13.7-7.4c-6.9,0-13,4.3-15.4,10.7c-2,0.2-3.8,1.1-5.2,2.6c-1.6,1.6-2.4,3.8-2.4,6c0,0.6,0.5,1,1,1h37.4
		c-2.8,1-4.8,3.6-4.8,6.7c0,0.6,0.5,1,1,1h37.6c0.3,0,0.5-0.1,0.7-0.3c0.2-0.2,0.3-0.5,0.3-0.7c-0.1-2.6-1.2-5.1-3-6.9
		C868.4,128,866,127,863.4,127z M802.1,128c0.5-3.1,3.1-5.5,6.3-5.6c0.4,0,0.8-0.3,0.9-0.7c1.9-5.9,7.5-9.9,13.7-9.9
		c5.1,0,9.6,2.6,12.3,6.9c0.2,0.3,0.5,0.5,0.9,0.5l0,0c0.1,0,0.2,0,0.4,0c3.3,0,6.4,1.5,8.3,4.2c-1.8,1.2-3.3,2.8-4.4,4.7H802.1z
		 M835.8,135.7c0.5-2.3,2.4-4,4.8-4.1c0.4,0,0.8-0.3,0.9-0.7c1.5-4.7,5.9-7.8,10.8-7.8c4,0,7.6,2,9.7,5.4c0.2,0.3,0.5,0.5,0.9,0.5
		l0,0c0.1,0,0.2,0,0.3,0h0.1c2.1,0,4.1,0.8,5.6,2.3c1.2,1.2,2,2.8,2.3,4.5H835.8z"/>
	<path class="st0" d="M970.9,37.1h1.9V39c0,0.6,0.5,1,1,1s1-0.5,1-1v-1.9h1.9c0.6,0,1-0.5,1-1c0-0.6-0.5-1-1-1h-1.9v-1.9
		c0-0.6-0.5-1-1-1s-1,0.5-1,1v1.9h-1.9c-0.6,0-1,0.5-1,1C969.9,36.6,970.3,37.1,970.9,37.1z"/>
	<path class="st0" d="M474,149.5v-37.9c0-0.6-0.5-1-1-1s-1,0.5-1,1v37.9H474z"/>
	<path class="st0" d="M467.9,136.4h2.2c0.6,0,1-0.5,1-1c0-0.6-0.5-1-1-1h-2.2c-0.6,0-1,0.5-1,1C466.9,136,467.3,136.4,467.9,136.4z"
		/>
	<path class="st0" d="M475.8,126.9h2.2c0.6,0,1-0.5,1-1c0-0.6-0.5-1-1-1h-2.2c-0.6,0-1,0.5-1,1C474.8,126.4,475.2,126.9,475.8,126.9
		z"/>
	<path class="st0" d="M467.9,126.9h2.2c0.6,0,1-0.5,1-1c0-0.6-0.5-1-1-1h-2.2c-0.6,0-1,0.5-1,1C466.9,126.4,467.3,126.9,467.9,126.9
		z"/>
	<path class="st0" d="M467.9,117.3h2.2c0.6,0,1-0.5,1-1c0-0.6-0.5-1-1-1h-2.2c-0.6,0-1,0.5-1,1C466.9,116.9,467.3,117.3,467.9,117.3
		z"/>
	<path class="st0" d="M475.8,117.3h2.2c0.6,0,1-0.5,1-1c0-0.6-0.5-1-1-1h-2.2c-0.6,0-1,0.5-1,1C474.8,116.9,475.2,117.3,475.8,117.3
		z"/>
	<path class="st0" d="M523.8,126.9h2.2c0.6,0,1-0.5,1-1c0-0.6-0.5-1-1-1h-2.2c-0.6,0-1,0.5-1,1C522.8,126.4,523.2,126.9,523.8,126.9
		z"/>
	<path class="st0" d="M523.8,117.3h2.2c0.6,0,1-0.5,1-1c0-0.6-0.5-1-1-1h-2.2c-0.6,0-1,0.5-1,1C522.8,116.9,523.2,117.3,523.8,117.3
		z"/>
	<path class="st0" d="M475.8,136.4h2.2c0.6,0,1-0.5,1-1c0-0.6-0.5-1-1-1h-2.2c-0.6,0-1,0.5-1,1C474.8,136,475.2,136.4,475.8,136.4z"
		/>
	<path class="st0" d="M522,149.5v-37.9c0-0.6-0.5-1-1-1s-1,0.5-1,1v37.9H522z"/>
	<path class="st0" d="M523.8,136.4h2.2c0.6,0,1-0.5,1-1c0-0.6-0.5-1-1-1h-2.2c-0.6,0-1,0.5-1,1C522.8,136,523.2,136.4,523.8,136.4z"
		/>
	<path class="st0" d="M919.7,149.5v-9.3h22.6v9.3h2v-9.3h13.6v9.3h2v-9.3h0v-3.5c0,0,0,0,0,0v-3.1c0,0,0,0,0,0c0-0.1,0-0.2-0.1-0.3
		c0,0,0-0.1,0-0.1c0-0.1-0.1-0.1-0.1-0.2c0-0.1-0.1-0.1-0.1-0.1c0,0,0,0,0,0l-11.9-10.5c-0.2-0.2-0.4-0.3-0.7-0.3h-15
		c-0.1,0-0.1,0-0.2,0c0,0,0,0-0.1,0c-0.1,0-0.2,0.1-0.3,0.2c0,0,0,0,0,0l-13.2,10.5c-0.1,0.1-0.2,0.2-0.3,0.3c0,0,0,0,0,0
		c0,0.1-0.1,0.2-0.1,0.3c0,0.1,0,0.1,0,0.1c0,0,0,0,0,0v16H919.7z M957.9,139.2h-13.6v-4.7l13.6,0V139.2z M946.6,124l9.6,8.5h-12.5
		l-9.2-8.5H946.6z M931.9,124.4l8.9,8.2h-19.1L931.9,124.4z M919.7,134.6h22.6v4.7h-22.6V134.6z"/>
	<path class="st0" d="M529.5,16.6h37.6c0.3,0,0.5-0.1,0.7-0.3c0.2-0.2,0.3-0.5,0.3-0.7c-0.1-2.6-1.2-5.1-3-6.9
		c-1.8-1.8-4.3-2.8-6.8-2.8c-2.5-3.7-6.6-5.9-11.1-5.9c-5.6,0-10.5,3.4-12.5,8.6c-3.5,0.4-6.2,3.4-6.2,7.1
		C528.5,16.2,528.9,16.6,529.5,16.6z M535.4,10.5c0.4,0,0.8-0.3,0.9-0.7c1.5-4.7,5.9-7.8,10.8-7.8c4,0,7.6,2,9.7,5.4
		c0.2,0.3,0.5,0.5,0.9,0.5l0,0c0.1,0,0.2,0,0.3,0l0.1,0c2.1,0,4.1,0.8,5.6,2.3c1.2,1.2,2,2.8,2.3,4.5h-35.4
		C531,12.3,533,10.6,535.4,10.5z"/>
	<path class="st0" d="M548.8,149.5v-10.7h36v10.7h2v-11.7c0-0.6-0.5-1-1-1h-7v-23c0,0,0,0,0,0c0-0.1,0-0.2-0.1-0.3c0,0,0,0,0,0
		c0,0,0,0,0,0l-10.9-25v-7.8c0-0.6-0.5-1-1-1c-0.6,0-1,0.5-1,1v7.8l-10.9,25c0,0,0,0,0,0c0,0,0,0,0,0c0,0.1-0.1,0.2-0.1,0.3
		c0,0,0,0,0,0v23h-7c-0.6,0-1,0.5-1,1v11.7H548.8z M576.2,112.8h-3.5l-3.1-15.2L576.2,112.8z M566.8,94.1l3.9,18.7h-7.7L566.8,94.1z
		 M564.1,97.3l-3.2,15.5h-3.6L564.1,97.3z M556.8,114.8h4.9c0,0,0,0,0,0c0,0,0,0,0,0h10.2c0,0,0,0,0,0c0,0,0,0,0,0h4.9v22h-20V114.8
		z"/>
	<path class="st0" d="M808.3,35.6c0,0.6,0.5,1,1,1h21.6c0.6,0,1-0.5,1-1c0-0.6-0.5-1-1-1h-21.6C808.8,34.6,808.3,35.1,808.3,35.6z"
		/>
	<path class="st0" d="M525.5,43.4h1.9v1.9c0,0.6,0.5,1,1,1c0.6,0,1-0.5,1-1v-1.9h1.9c0.6,0,1-0.5,1-1c0-0.6-0.5-1-1-1h-1.9v-1.9
		c0-0.6-0.5-1-1-1c-0.6,0-1,0.5-1,1v1.9h-1.9c-0.6,0-1,0.5-1,1C524.5,42.9,524.9,43.4,525.5,43.4z"/>
	<path class="st0" d="M707,2c2.2,0,4,1.8,4,4c0,0.6,0.5,1,1,1s1-0.5,1-1c0-2.2,1.8-4,4-4c0.6,0,1-0.5,1-1c0-0.6-0.5-1-1-1
		c-2.1,0-3.9,1.1-5,2.7C711,1.1,709.1,0,707,0c-0.6,0-1,0.5-1,1C706,1.6,706.5,2,707,2z"/>
	<path class="st0" d="M823,69.1c0.6,0,1-0.5,1-1v-1.6h1.6c0.6,0,1-0.5,1-1c0-0.6-0.5-1-1-1H824v-1.6c0-0.6-0.5-1-1-1s-1,0.5-1,1v1.6
		h-1.6c-0.6,0-1,0.5-1,1c0,0.6,0.5,1,1,1h1.6v1.6C822,68.7,822.5,69.1,823,69.1z"/>
	<path class="st0" d="M484.6,27.5c0.1,0,0.1,0,0.2,0c0.5,0,0.9-0.3,1-0.8c0.1-0.5-0.3-1.1-0.8-1.2l-5.5-1c-0.5-0.1-1.1,0.3-1.2,0.8
		c-0.1,0.5,0.3,1.1,0.8,1.2L484.6,27.5z"/>
	<path class="st0" d="M569.9,118.9h-6.2c-0.6,0-1,0.5-1,1v11.8c0,0.6,0.5,1,1,1h6.2c0.6,0,1-0.5,1-1v-11.8
		C570.9,119.4,570.4,118.9,569.9,118.9z M568.9,130.7h-4.2v-9.8h4.2V130.7z"/>
	<path class="st0" d="M973.6,87.6c0.4-0.2,0.6-0.5,0.6-0.9c0-0.4-0.3-0.8-0.6-0.9c-0.1-0.1-0.3-0.1-0.4-0.1h-15.9c-0.6,0-1,0.5-1,1
		c0,0.6,0.5,1,1,1h15.9C973.4,87.7,973.5,87.7,973.6,87.6z"/>
	<path class="st0" d="M978.4,89.6H967c-0.6,0-1,0.5-1,1c0,0.6,0.5,1,1,1h11.4c0.6,0,1-0.5,1-1C979.4,90,979,89.6,978.4,89.6z"/>
	<path class="st0" d="M981.2,81.8h-28.9c-0.6,0-1,0.5-1,1c0,0.6,0.5,1,1,1h28.9c0.6,0,1-0.5,1-1C982.2,82.2,981.7,81.8,981.2,81.8z"
		/>
	<path class="st0" d="M672.3,15.4c2.5,0,4.6,2.1,4.6,4.6c0,0.6,0.5,1,1,1c0.6,0,1-0.5,1-1c0-2.5,2.1-4.6,4.6-4.6c0.6,0,1-0.5,1-1
		c0-0.6-0.5-1-1-1c-2.4,0-4.4,1.2-5.6,3.1c-1.2-1.9-3.2-3.1-5.6-3.1c-0.6,0-1,0.5-1,1C671.3,14.9,671.8,15.4,672.3,15.4z"/>
	<path class="st0" d="M495.1,108.4h3.2c0.6,0,1-0.5,1-1v-9.9c0-0.6-0.5-1-1-1h-3.2c-0.6,0-1,0.5-1,1v9.9
		C494,108,494.5,108.4,495.1,108.4z M496.1,98.5h1.2v7.9h-1.2V98.5z"/>
	<path class="st0" d="M493.7,149.5v-19c0-0.6-0.5-1-1-1c-0.6,0-1,0.5-1,1v19H493.7z"/>
	<path class="st0" d="M932,38.1c0,0.6,0.5,1,1,1c2.5,0,4.6,2.1,4.6,4.6c0,0.6,0.5,1,1,1c0.6,0,1-0.5,1-1c0-2.5,2.1-4.6,4.6-4.6
		c0.6,0,1-0.5,1-1c0-0.6-0.5-1-1-1c-2.4,0-4.4,1.2-5.6,3.1c-1.2-1.9-3.2-3.1-5.6-3.1C932.5,37.1,932,37.6,932,38.1z"/>
	<path class="st0" d="M925.5,38.5c0,0.6,0.5,1,1,1c0.6,0,1-0.5,1-1c0-4.1,3.3-7.4,7.4-7.4c0.6,0,1-0.5,1-1c0-0.6-0.5-1-1-1
		c-3.7,0-6.9,2.1-8.4,5.2c-1.6-3.1-4.7-5.2-8.4-5.2c-0.6,0-1,0.5-1,1c0,0.6,0.5,1,1,1C922.2,31,925.5,34.4,925.5,38.5z"/>
	<path class="st0" d="M459.9,104.4c0,0,0.1,0,0.1,0l0.4,0v45.2h2v-45.4c1.1-0.1,2.3-0.2,3.4-0.2c6.4,0,11.1,2.1,13.8,3.8
		c2.4,1.5,3.8,3,4.3,3.6v38.1h2V111c0,0,0,0,0,0V92h21.5v57.5h2v-38.1c0.5-0.6,1.9-2.1,4.3-3.6c5-3.2,10.3-3.8,13.8-3.8
		c1.1,0,2.2,0.1,3.4,0.2v45.4h2v-45.2l0.4,0c0,0,0.1,0,0.1,0c0.5,0,0.9-0.4,1-0.9c0.1-0.6-0.3-1.1-0.9-1.1l-1.5-0.2c0,0,0,0,0,0l0,0
		l0,0c0,0,0,0,0,0c-1.5-0.2-3-0.3-4.5-0.3c-7,0-12,2.3-15,4.2c-1.3,0.8-2.4,1.7-3.1,2.4V87c0.1,0.1,0.3,0.1,0.4,0.1
		c0.2,0,0.3,0,0.5-0.1c0.5-0.3,0.7-0.9,0.4-1.4c-0.4-0.7-0.9-1.4-1.6-2c0,0,0,0,0,0c0,0-0.1-0.1-0.1-0.1c-0.3-0.2-0.5-0.4-0.8-0.7
		c-0.1,0-0.1-0.1-0.2-0.1c-0.3-0.2-0.7-0.4-1-0.6c-0.1-0.1-0.3-0.1-0.4-0.2c-0.3-0.2-0.7-0.3-1-0.5c-0.1-0.1-0.3-0.1-0.4-0.2
		c-0.3-0.1-0.6-0.2-1-0.3c-0.2-0.1-0.3-0.1-0.5-0.2c-0.4-0.1-0.9-0.2-1.3-0.3c-0.1,0-0.3-0.1-0.4-0.1c-0.4-0.1-0.8-0.2-1.2-0.2
		c-0.1,0-0.2,0-0.3-0.1c-0.5-0.1-1-0.1-1.5-0.2c-0.1,0-0.3,0-0.4,0c-0.5,0-1.1-0.1-1.7-0.1c-0.6,0-1.1,0-1.7,0.1c-0.1,0-0.3,0-0.4,0
		c-0.5,0-1,0.1-1.5,0.2c-0.1,0-0.2,0-0.3,0.1c-0.4,0.1-0.8,0.1-1.2,0.2c-0.1,0-0.3,0.1-0.4,0.1c-0.4,0.1-0.9,0.2-1.3,0.3
		c-0.2,0.1-0.3,0.1-0.5,0.2c-0.3,0.1-0.7,0.2-1,0.3c-0.1,0.1-0.3,0.1-0.4,0.2c-0.4,0.2-0.7,0.3-1,0.5c-0.1,0.1-0.3,0.1-0.4,0.2
		c-0.4,0.2-0.7,0.4-1,0.6c-0.1,0-0.1,0.1-0.2,0.1c-0.3,0.2-0.6,0.4-0.8,0.7c0,0-0.1,0.1-0.1,0.1c0,0,0,0,0,0c-0.7,0.6-1.2,1.3-1.6,2
		c-0.3,0.5-0.1,1.1,0.4,1.4c0.2,0.1,0.3,0.1,0.5,0.1c0.1,0,0.3,0,0.4-0.1v21.6c-0.8-0.7-1.8-1.6-3.1-2.4c-5.4-3.5-11.1-4.2-15-4.2
		c-1.5,0-3,0.1-4.5,0.3c0,0,0,0,0,0l0,0l0,0c0,0,0,0,0,0l-1.5,0.2c-0.6,0.1-0.9,0.6-0.9,1.1C458.9,104,459.4,104.4,459.9,104.4z
		 M485.9,84.8C485.9,84.8,485.9,84.8,485.9,84.8c1.5-1.2,3.6-2.1,6-2.6c0,0,0.1,0,0.1,0c0.9-0.2,1.9-0.3,2.8-0.4c0.1,0,0.2,0,0.3,0
		c0.5,0,1,0,1.4,0s1,0,1.4,0c0.1,0,0.2,0,0.3,0c1,0.1,1.9,0.2,2.8,0.4c0,0,0.1,0,0.1,0c2.4,0.5,4.5,1.4,6,2.6c0,0,0,0,0,0V90h-21.5
		V84.8z"/>
	<path class="st0" d="M494,124.3c0,0.6,0.5,1,1,1h3.2c0.6,0,1-0.5,1-1v-9.9c0-0.6-0.5-1-1-1h-3.2c-0.6,0-1,0.5-1,1V124.3z
		 M496.1,115.4h1.2v7.9h-1.2V115.4z"/>
	<path class="st0" d="M898.7,77.5c-0.8,0-1.6,0.1-2.4,0.3c-2.1-2.4-5.1-3.8-8.3-3.8c-1.9,0-3.8,0.5-5.4,1.4
		c-2.4-1.8-5.4-2.8-8.4-2.8c-5.8,0-11,3.6-13.1,9c-3.2,0.4-5.8,2.9-6.4,6.1c-0.1,0.3,0,0.6,0.2,0.8c0.2,0.2,0.5,0.4,0.8,0.4h53.2
		c0.3,0,0.5-0.1,0.7-0.3c0.2-0.2,0.3-0.5,0.3-0.8C909.3,82.1,904.5,77.5,898.7,77.5z M856.9,86.9c0.8-1.9,2.7-3.3,4.8-3.3
		c0.4,0,0.8-0.3,0.9-0.7c1.6-4.9,6.2-8.3,11.4-8.3c2.8,0,5.5,1,7.7,2.8c0.3,0.3,0.8,0.3,1.2,0.1c1.5-1,3.2-1.5,5-1.5
		c2.8,0,5.4,1.3,7.2,3.5c0.3,0.3,0.7,0.5,1.1,0.4c0.8-0.2,1.7-0.4,2.5-0.4c4.4,0,8.1,3.2,8.9,7.4H856.9z"/>
	<path class="st0" d="M486.5,135.4c0,0.6,0.5,1,1,1h2.2c0.6,0,1-0.5,1-1c0-0.6-0.5-1-1-1h-2.2C487,134.4,486.5,134.9,486.5,135.4z"
		/>
	<path class="st0" d="M487.7,124.3c0,0.6,0.5,1,1,1h3.2c0.6,0,1-0.5,1-1v-9.9c0-0.6-0.5-1-1-1h-3.2c-0.6,0-1,0.5-1,1V124.3z
		 M489.7,115.4h1.2v7.9h-1.2V115.4z"/>
	<path class="st0" d="M891.9,46.6c1.2,0,2.1,0.9,2.1,2.1c0,0.6,0.5,1,1,1c0.6,0,1-0.5,1-1c0-1.2,0.9-2.1,2.1-2.1h0c0.5,0,1-0.5,1-1
		c0-0.6-0.5-1-1-1h0c-1.2,0-2.1-0.9-2.1-2.1c0-0.6-0.5-1-1-1h0c-0.6,0-1,0.5-1,1c0,0.6-0.2,1.1-0.6,1.5c-0.4,0.4-0.9,0.6-1.5,0.6h0
		c-0.6,0-1,0.5-1,1C890.9,46.2,891.4,46.6,891.9,46.6z M894.8,45.4c0.1-0.1,0.1-0.1,0.2-0.2c0.1,0.1,0.3,0.3,0.4,0.4
		c-0.1,0.1-0.3,0.3-0.4,0.4c-0.1-0.1-0.3-0.3-0.4-0.4C894.7,45.6,894.8,45.5,894.8,45.4z"/>
	<path class="st0" d="M488.7,108.4h3.2c0.6,0,1-0.5,1-1v-9.9c0-0.6-0.5-1-1-1h-3.2c-0.6,0-1,0.5-1,1v9.9
		C487.7,108,488.1,108.4,488.7,108.4z M489.7,98.5h1.2v7.9h-1.2V98.5z"/>
	<path class="st0" d="M114.5,126.2H94.8c-0.6,0-1,0.5-1,1c0,0.6,0.5,1,1,1h19.8c0.6,0,1-0.5,1-1
		C115.6,126.6,115.1,126.2,114.5,126.2z"/>
	<path class="st0" d="M49.6,115.7c-2.5-3.7-6.6-5.9-11.1-5.9c-5.6,0-10.5,3.4-12.5,8.6c-3.5,0.4-6.2,3.4-6.2,7.1c0,0.6,0.5,1,1,1
		h37.6c0.3,0,0.5-0.1,0.7-0.3c0.2-0.2,0.3-0.5,0.3-0.7c-0.1-2.6-1.2-5.1-3-6.9C54.6,116.8,52.2,115.8,49.6,115.7z M22,124.5
		c0.5-2.3,2.4-4,4.8-4.1c0.4,0,0.8-0.3,0.9-0.7c1.5-4.7,5.9-7.8,10.8-7.8c4,0,7.6,2,9.7,5.4c0.2,0.3,0.5,0.5,0.9,0.5l0,0
		c0.1,0,0.2,0,0.3,0l0.1,0c2.1,0,4.1,0.8,5.6,2.3c1.2,1.2,2,2.8,2.3,4.5H22z"/>
	<path class="st0" d="M27.6,91.6c1.4,0,2.6-1.1,2.6-2.6v-5.2c0,0,0-0.1,0-0.1v-4.6c1-2.1,3.3-4,5.9-6c4.8-3.8,10.8-8.6,12.1-18.2
		c0.7-5.6-1-11.1-5-15.6c-4.7-5.4-11.8-8.6-19-8.6c0,0,0,0,0,0c0,0,0,0,0,0c0,0,0,0,0,0c-7.2,0-14.3,3.2-19,8.6
		c-3.9,4.5-5.7,10-5,15.6C1.4,64.4,7.4,69.2,12.2,73c2.6,2.1,4.9,3.9,5.9,6v10c0,1.4,1.1,2.6,2.6,2.6H27.6z M24.9,89.1
		c0,0.2,0,0.4,0,0.5h-1.5c0-0.1,0-0.3,0-0.5v-4.4h1.6V89.1z M28.1,89.1c0,0.3-0.2,0.5-0.5,0.5h-0.7c0-0.2,0-0.4,0-0.5v-4.4h1.2V89.1
		z M28.2,82.7h-8v-2.2c0.1,0,0.2,0,0.3,0.1c1,0.2,2.3,0.3,3.8,0.3c1.4,0,2.7-0.1,3.8-0.3c0.1,0,0.1,0,0.2,0V82.7z M24.2,64.4
		c1.3,0,2.6,0,3.7,0.1c-0.6,3.1-1.3,5.4-1.9,7.5c-0.5,1.7-1,3.2-1.3,5c-0.2,0-0.3,0-0.5,0s-0.3,0-0.5,0c-0.3-1.8-0.8-3.3-1.3-5
		c-0.7-2.1-1.4-4.4-1.9-7.5C21.6,64.4,22.8,64.4,24.2,64.4z M20.1,62.5c-0.2-1.7-0.4-3.6-0.5-5.9c1.5,0,3-0.1,4.6-0.1
		c1.6,0,3.1,0,4.6,0.1c-0.1,2.2-0.3,4.2-0.5,5.9c-1.3-0.1-2.7-0.1-4.1-0.1C22.8,62.4,21.4,62.4,20.1,62.5z M27.2,77.1
		c-0.2,0-0.3,0-0.5,0c0.3-1.5,0.7-2.9,1.2-4.5c0.7-2.1,1.4-4.6,2-8c2.3,0.1,4.3,0.4,5.9,0.6c-1.4,2.6-3.1,4.5-4.7,6.4
		C29.6,73.4,28.1,75.1,27.2,77.1z M30.2,62.6c0.2-1.7,0.4-3.7,0.5-5.9c2.8,0.1,5.5,0.4,7.7,0.7c-0.4,2.3-1,4.2-1.8,6c0,0,0,0,0,0
		C34.8,63,32.6,62.7,30.2,62.6z M34.8,71.5c-1.2,0.9-2.3,1.8-3.2,2.7c0.3-0.4,0.7-0.8,1.1-1.3c1.7-2,3.6-4.3,5.2-7.3
		c1.3,0.3,2.2,0.6,2.6,0.9C38.7,68.4,36.7,70,34.8,71.5z M41.8,64.9c-0.6-0.5-1.6-0.9-3-1.2c0.7-1.8,1.3-3.8,1.8-6.1
		c3.2,0.6,4.3,1.1,4.6,1.4C44.3,61.3,43.1,63.3,41.8,64.9z M41.7,40.6c3.5,4.1,5.1,9,4.5,14c-0.1,0.9-0.3,1.7-0.5,2.5
		c-1-0.5-2.6-1-4.9-1.4c0-0.3,0.1-0.6,0.1-0.9c0.6-7-1.6-14.1-5.9-18.8c-0.4-0.4-0.8-0.8-1.2-1.2C36.8,36.1,39.5,38.1,41.7,40.6z
		 M33.5,37.3c4,4.3,6,10.8,5.4,17.3c0,0.3-0.1,0.5-0.1,0.8c-2.3-0.3-5-0.6-7.9-0.7c0.3-8.9-1.1-17.4-3.4-21.4
		C29.6,33.9,31.7,35.3,33.5,37.3z M24.2,32.7C24.2,32.7,24.2,32.7,24.2,32.7c0.2,0,0.5,0.2,0.8,0.5c2.2,2.3,4.3,10.9,3.9,21.5
		c-1.5-0.1-3.1-0.1-4.7-0.1s-3.2,0-4.7,0.1c-0.3-10.5,1.7-19.2,3.9-21.5C23.7,32.8,24,32.7,24.2,32.7z M20.9,33.2
		c-2.3,4-3.7,12.5-3.4,21.4c-2.9,0.1-5.6,0.4-8,0.7c0-0.3-0.1-0.5-0.1-0.8c-0.6-6.5,1.4-12.9,5.4-17.3
		C16.6,35.3,18.7,33.9,20.9,33.2z M18.1,62.6c-2.4,0.2-4.6,0.4-6.5,0.7c0,0,0,0-0.1,0c-0.8-1.7-1.4-3.7-1.8-6
		c2.3-0.3,4.9-0.5,7.8-0.7C17.7,58.9,17.9,60.8,18.1,62.6z M2.2,54.5c-0.7-5,0.9-9.9,4.5-14c2.1-2.5,4.8-4.4,7.8-5.8
		c-0.4,0.4-0.8,0.7-1.1,1.2C9,40.7,6.8,47.7,7.4,54.8c0,0.3,0.1,0.6,0.1,0.9C5.3,56,3.7,56.5,2.6,57C2.4,56.2,2.3,55.4,2.2,54.5z
		 M6.5,65C5.2,63.3,4,61.3,3.2,59c0.3-0.2,1.3-0.8,4.6-1.4c0.4,2.3,1,4.3,1.8,6.1C8.2,64.1,7.2,64.5,6.5,65z M13.5,71.5
		c-1.9-1.5-3.9-3.1-5.6-5c0.4-0.3,1.3-0.6,2.6-0.9c1.6,3,3.5,5.3,5.2,7.3c0.4,0.4,0.7,0.9,1.1,1.3C15.7,73.3,14.7,72.4,13.5,71.5z
		 M17.2,71.6c-1.6-1.9-3.3-3.8-4.7-6.4c1.6-0.3,3.6-0.5,5.9-0.6c0.6,3.4,1.3,5.8,2,8c0.5,1.6,0.9,3,1.2,4.5c-0.2,0-0.3,0-0.5,0
		C20.2,75.1,18.7,73.4,17.2,71.6z M20.1,89.1v-4.4h1.2v4.4c0,0.2,0,0.4,0,0.5h-0.7C20.4,89.6,20.1,89.4,20.1,89.1z"/>
	<path class="st0" d="M155.8,135.7c-1.7,0-2.2,2.4-2.4,3.3c-0.4,2-0.6,5.2-0.6,9.5h2c0-7.4,0.6-9.8,1-10.5c0.3,0.7,1,3.1,1,10.5h2
		c0-4.2-0.2-7.4-0.6-9.5C158,138.1,157.6,135.7,155.8,135.7z"/>
	<path class="st0" d="M70.4,25.7c0,0.6,0.5,1,1,1s1-0.5,1-1c0-2.2,1.8-4,4-4c0.6,0,1-0.5,1-1c0-0.6-0.5-1-1-1c-2.1,0-3.9,1.1-5,2.7
		c-1.1-1.6-2.9-2.7-5-2.7c-0.6,0-1,0.5-1,1c0,0.6,0.5,1,1,1C68.6,21.7,70.4,23.5,70.4,25.7z"/>
	<path class="st0" d="M106,118.9c0-0.6-0.5-1-1-1H78.2c-0.6,0-1,0.5-1,1c0,0.6,0.5,1,1,1H105C105.6,119.9,106,119.5,106,118.9z"/>
	<path class="st0" d="M114.5,122H86c-0.6,0-1,0.5-1,1c0,0.6,0.5,1,1,1h28.5c0.6,0,1-0.5,1-1C115.6,122.5,115.1,122,114.5,122z"/>
	<path class="st0" d="M618.6,80.6c1.4,0,2.6-1.1,2.6-2.6v-5.2c0,0,0-0.1,0-0.1v-4.6c1-2.1,3.3-4,5.9-6c4.8-3.8,10.8-8.6,12.1-18.2
		c0.7-5.6-1-11.1-5-15.6c-4.7-5.4-11.8-8.6-19-8.6c0,0,0,0,0,0c0,0,0,0,0,0c0,0,0,0,0,0c-7.2,0-14.3,3.2-19,8.6
		c-3.9,4.5-5.7,10-5,15.6c1.3,9.6,7.3,14.4,12.1,18.2c2.6,2.1,4.9,3.9,5.9,6v10c0,1.4,1.1,2.6,2.6,2.6H618.6z M615.9,78.1
		c0,0.2,0,0.4,0,0.5h-1.5c0-0.1,0-0.3,0-0.5v-4.4h1.6V78.1z M619.1,78.1c0,0.3-0.2,0.5-0.5,0.5h-0.7c0-0.2,0-0.4,0-0.5v-4.4h1.2
		V78.1z M619.2,71.7h-8v-2.2c0.1,0,0.2,0,0.3,0.1c1,0.2,2.3,0.3,3.8,0.3c1.4,0,2.7-0.1,3.8-0.3c0.1,0,0.1,0,0.2,0V71.7z M615.2,53.4
		c1.3,0,2.6,0,3.7,0.1c-0.6,3.1-1.3,5.4-1.9,7.5c-0.5,1.7-1,3.2-1.3,5c-0.2,0-0.3,0-0.5,0c-0.2,0-0.3,0-0.5,0
		c-0.3-1.8-0.8-3.3-1.3-5c-0.7-2.1-1.4-4.4-1.9-7.5C612.6,53.4,613.8,53.4,615.2,53.4z M611.1,51.5c-0.2-1.7-0.4-3.6-0.5-5.9
		c1.5,0,3-0.1,4.6-0.1c1.6,0,3.1,0,4.6,0.1c-0.1,2.2-0.3,4.2-0.5,5.9c-1.3-0.1-2.7-0.1-4.1-0.1C613.8,51.4,612.4,51.4,611.1,51.5z
		 M618.2,66.1c-0.2,0-0.3,0-0.5,0c0.3-1.5,0.7-2.9,1.2-4.5c0.7-2.1,1.4-4.6,2-8c2.3,0.1,4.3,0.4,5.9,0.6c-1.4,2.6-3.1,4.5-4.7,6.4
		C620.6,62.4,619.1,64.1,618.2,66.1z M621.2,51.6c0.2-1.7,0.4-3.7,0.5-5.9c2.8,0.1,5.5,0.4,7.7,0.7c-0.4,2.3-1,4.2-1.8,6
		c0,0,0,0,0,0C625.8,52,623.6,51.7,621.2,51.6z M625.8,60.5c-1.2,0.9-2.3,1.8-3.2,2.7c0.3-0.4,0.7-0.8,1.1-1.3
		c1.7-2,3.6-4.3,5.2-7.3c1.3,0.3,2.2,0.6,2.6,0.9C629.7,57.4,627.7,59,625.8,60.5z M632.8,53.9c-0.6-0.5-1.6-0.9-3-1.2
		c0.7-1.8,1.3-3.8,1.8-6.1c3.2,0.6,4.3,1.1,4.6,1.4C635.3,50.3,634.1,52.3,632.8,53.9z M632.7,29.6c3.5,4.1,5.1,9,4.5,14
		c-0.1,0.9-0.3,1.7-0.5,2.5c-1-0.5-2.6-1-4.9-1.4c0-0.3,0.1-0.6,0.1-0.9c0.6-7-1.6-14.1-5.9-18.8c-0.4-0.4-0.8-0.8-1.2-1.2
		C627.8,25.1,630.5,27.1,632.7,29.6z M624.5,26.3c4,4.3,6,10.8,5.4,17.3c0,0.3-0.1,0.5-0.1,0.8c-2.3-0.3-5-0.6-7.9-0.7
		c0.3-8.9-1.1-17.4-3.4-21.4C620.6,22.9,622.7,24.3,624.5,26.3z M615.2,21.7C615.2,21.7,615.2,21.7,615.2,21.7
		c0.2,0,0.5,0.2,0.8,0.5c2.2,2.3,4.3,10.9,3.9,21.5c-1.5-0.1-3.1-0.1-4.7-0.1c-1.6,0-3.2,0-4.7,0.1c-0.3-10.5,1.7-19.2,3.9-21.5
		C614.7,21.8,615,21.7,615.2,21.7z M611.9,22.2c-2.3,4-3.7,12.5-3.4,21.4c-2.9,0.1-5.6,0.4-8,0.7c0-0.3-0.1-0.5-0.1-0.8
		c-0.6-6.5,1.4-12.9,5.4-17.3C607.6,24.3,609.7,22.9,611.9,22.2z M609.1,51.6c-2.4,0.2-4.6,0.4-6.5,0.7c0,0,0,0-0.1,0
		c-0.8-1.7-1.4-3.7-1.8-6c2.3-0.3,4.9-0.5,7.8-0.7C608.7,47.9,608.9,49.8,609.1,51.6z M593.2,43.5c-0.7-5,0.9-9.9,4.5-14
		c2.1-2.5,4.8-4.4,7.8-5.8c-0.4,0.4-0.8,0.7-1.2,1.2c-4.3,4.8-6.6,11.8-5.9,18.8c0,0.3,0.1,0.6,0.1,0.9c-2.2,0.4-3.8,0.8-4.9,1.4
		C593.4,45.2,593.3,44.4,593.2,43.5z M597.5,54c-1.3-1.7-2.5-3.6-3.3-5.9c0.3-0.2,1.3-0.8,4.6-1.4c0.4,2.3,1,4.3,1.8,6.1
		C599.2,53.1,598.2,53.5,597.5,54z M604.5,60.5c-1.9-1.5-3.9-3.1-5.6-5c0.4-0.3,1.3-0.6,2.6-0.9c1.6,3,3.5,5.3,5.2,7.3
		c0.4,0.4,0.7,0.9,1.1,1.3C606.7,62.3,605.7,61.4,604.5,60.5z M608.2,60.6c-1.6-1.9-3.3-3.8-4.7-6.4c1.6-0.3,3.6-0.5,5.9-0.6
		c0.6,3.4,1.3,5.8,2,8c0.5,1.6,0.9,3,1.2,4.5c-0.2,0-0.3,0-0.5,0C611.2,64.1,609.7,62.4,608.2,60.6z M611.1,78.1v-4.4h1.2v4.4
		c0,0.2,0,0.4,0,0.5h-0.7C611.4,78.6,611.1,78.4,611.1,78.1z"/>
	<path class="st0" d="M705.5,111H677c-0.6,0-1,0.5-1,1c0,0.6,0.5,1,1,1h28.5c0.6,0,1-0.5,1-1C706.6,111.5,706.1,111,705.5,111z"/>
	<path class="st0" d="M746,149.5c-0.1-4.3-0.1-10.1-0.1-12c0-7.4,0.6-9.8,1-10.5c0.3,0.7,1,3.1,1,10.5c0,1.9,0,7.7-0.1,12h2
		c0.1-4.4,0.1-10.3,0.1-12c0-4.2-0.2-7.4-0.6-9.5c-0.2-0.9-0.7-3.3-2.4-3.3c-1.7,0-2.2,2.4-2.4,3.3c-0.4,2-0.6,5.2-0.6,9.5
		c0,1.7,0,7.6,0.1,12H746z"/>
	<path class="st0" d="M705.5,115.2h-19.8c-0.6,0-1,0.5-1,1c0,0.6,0.5,1,1,1h19.8c0.6,0,1-0.5,1-1
		C706.6,115.6,706.1,115.2,705.5,115.2z"/>
	<path class="st0" d="M661.4,14.7c0,0.6,0.5,1,1,1c0.6,0,1-0.5,1-1c0-2.2,1.8-4,4-4c0.6,0,1-0.5,1-1c0-0.6-0.5-1-1-1
		c-2.1,0-3.9,1.1-5,2.7c-1.1-1.6-2.9-2.7-5-2.7c-0.6,0-1,0.5-1,1c0,0.6,0.5,1,1,1C659.6,10.7,661.4,12.5,661.4,14.7z"/>
	<path class="st0" d="M697,107.9c0-0.6-0.5-1-1-1h-26.8c-0.6,0-1,0.5-1,1c0,0.6,0.5,1,1,1H696C696.6,108.9,697,108.5,697,107.9z"/>
	<path class="st0" d="M640.6,104.7c-2.5-3.7-6.6-5.9-11.1-5.9c-5.6,0-10.5,3.4-12.5,8.6c-3.5,0.4-6.2,3.4-6.2,7.1c0,0.6,0.5,1,1,1
		h37.6c0.3,0,0.5-0.1,0.7-0.3c0.2-0.2,0.3-0.5,0.3-0.7c-0.1-2.6-1.2-5.1-3-6.9C645.6,105.8,643.2,104.8,640.6,104.7z M613,113.5
		c0.5-2.3,2.4-4,4.8-4.1c0.4,0,0.8-0.3,0.9-0.7c1.5-4.7,5.9-7.8,10.8-7.8c4,0,7.6,2,9.7,5.4c0.2,0.3,0.5,0.5,0.9,0.5l0,0
		c0.1,0,0.2,0,0.3,0l0.1,0c2.1,0,4.1,0.8,5.6,2.3c1.2,1.2,2,2.8,2.3,4.5H613z"/>
	<path class="st0" d="M444.6,140.4c0-0.6-0.5-1-1-1h-0.7v-20.9h0.7c0.6,0,1-0.5,1-1c0-0.6-0.5-1-1-1h-5.3v-15c0-5.2-3.9-9.4-9-9.9
		V68.9c0-0.6-0.5-1-1-1s-1,0.5-1,1v22.6c-5,0.5-9,4.8-9,9.9v15h-5.3c-0.6,0-1,0.5-1,1c0,0.6,0.5,1,1,1h0.7v20.9h-0.7
		c-0.6,0-1,0.5-1,1H444.6z M428.4,93.5c4,0,7.4,3,7.9,7h-15.8C421,96.5,424.3,93.5,428.4,93.5z M436.4,102.5v14h-1.9v-14H436.4z
		 M432.4,102.5v14h-1.1v-14H432.4z M429.3,102.5v14h-1.9v-14H429.3z M425.4,102.5v14h-1.1v-14H425.4z M420.4,102.5h1.9v14h-1.9
		V102.5z M415.9,139.4v-20.9h25.1v20.9H415.9z"/>
	<path class="st0" d="M351.7,149.5v-13.4h22.6v13.4h2v-13.4h13.6v13.4h2v-8.5l0,0v-3.5c0,0,0,0,0,0v-2.4c0,0,0,0,0,0v-3.5
		c0,0,0,0,0,0v-2.4c0,0,0,0,0,0v-3.5c0,0,0,0,0,0v-2.4c0,0,0,0,0,0v-3.5c0,0,0,0,0,0v-2.4c0,0,0,0,0,0v-3.5c0,0,0,0,0,0v-2.4
		c0,0,0,0,0,0v-3.5c0,0,0,0,0,0v-3.1c0,0,0,0,0,0c0-0.1,0-0.2-0.1-0.3c0,0,0-0.1,0-0.1c0-0.1-0.1-0.1-0.1-0.2c0-0.1-0.1-0.1-0.1-0.1
		l-11.9-10.5c-0.2-0.2-0.4-0.3-0.7-0.3h-15c-0.1,0-0.1,0-0.2,0c0,0,0,0-0.1,0c-0.1,0-0.2,0.1-0.3,0.2c0,0,0,0,0,0l-13.2,10.5
		c-0.1,0.1-0.2,0.2-0.3,0.3c0,0,0,0,0,0c0,0.1-0.1,0.2-0.1,0.3c0,0.1,0,0.1,0,0.1c0,0,0,0,0,0v45H351.7z M389.9,134.1h-13.6v-3.9
		h13.6V134.1z M389.9,128.1h-13.6v-3.9h13.6V128.1z M389.9,122.2h-13.6v-3.9h13.6V122.2z M389.9,116.2h-13.6v-3.9h13.6V116.2z
		 M389.9,110.2h-13.6v-4.7l13.6,0V110.2z M378.6,95l9.6,8.5h-12.5l-9.2-8.5H378.6z M363.9,95.4l8.9,8.2h-19.1L363.9,95.4z
		 M351.7,105.6h22.6v4.7h-22.6V105.6z M351.7,112.2h22.6v3.9h-22.6V112.2z M351.7,118.2h22.6v3.9h-22.6V118.2z M351.7,124.2h22.6
		v3.9h-22.6V124.2z M351.7,130.1h22.6v3.9h-22.6V130.1z"/>
	<path class="st0" d="M428.4,120.4c-4.7,0-8.6,3.8-8.6,8.6c0,4.7,3.8,8.6,8.6,8.6c4.7,0,8.6-3.8,8.6-8.6
		C437,124.2,433.1,120.4,428.4,120.4z M428.4,135.5c-3.6,0-6.6-2.9-6.6-6.6c0-3.5,2.7-6.4,6.2-6.5c-0.4,0.1-0.6,0.5-0.6,0.9v5.9
		c0,0.6,0.5,1,1,1h4.3c0.6,0,1-0.5,1-1c0-0.6-0.5-1-1-1h-3.3v-4.9c0-0.4-0.3-0.8-0.6-0.9c3.4,0.2,6.2,3,6.2,6.5
		C434.9,132.6,432,135.5,428.4,135.5z"/>
	<path class="st0" d="M759.4,67c-0.1,0-0.1,0-0.2,0c-1.8-2.8-4.3-5.1-7.2-6.8c-3.1-1.8-6.7-2.8-10.4-2.8c-3.3,0-6.5,0.8-9.3,2.2
		c0-0.2,0-0.4-0.2-0.6c-3.6-5.1-9.4-8.1-15.6-8.1c-0.1,0-0.1,0-0.2,0c0,0-0.1,0-0.1,0c-2.3-3.5-5.3-6.4-8.9-8.5
		c-3.9-2.2-8.3-3.4-12.9-3.4c-5.6,0-10.9,1.7-15.4,5c-4.2,3.1-7.3,7.3-9.1,12.2c-3.2,0.3-6.2,1.7-8.5,4c-2.4,2.5-3.8,5.8-3.8,9.3
		c0,0.6,0.5,1,1,1h63.5c-0.1,0.2-0.2,0.4-0.3,0.7c-2.6,0.2-4.9,1.4-6.8,3.2c-2,2-3.1,4.7-3.1,7.6c0,0.6,0.5,1,1,1h60.7
		c0.3,0,0.5-0.1,0.7-0.3c0.2-0.2,0.3-0.5,0.3-0.7c-0.1-4.1-1.8-7.9-4.7-10.7C767.3,68.6,763.4,67,759.4,67z M659.8,68.6
		c0.2-2.6,1.3-5,3.2-6.9c2.1-2.1,4.8-3.3,7.8-3.4c0.4,0,0.8-0.3,0.9-0.7c1.6-4.8,4.5-8.9,8.6-11.8c4.1-3,9-4.7,14.2-4.7
		c4.2,0,8.3,1.1,11.9,3.1c3.5,2,6.4,4.9,8.5,8.3c0.2,0.3,0.5,0.5,0.9,0.5l0,0c0.2,0,0.4,0,0.6,0c5.6-0.1,10.9,2.7,14.2,7.3
		c0.1,0.1,0.2,0.2,0.3,0.3c-3.2,1.9-5.8,4.7-7.6,8.1H659.8z M714.2,81.1c0.2-1.9,1.1-3.8,2.5-5.2c1.6-1.7,3.8-2.6,6.1-2.7
		c0.4,0,0.8-0.3,0.9-0.7c2.6-7.8,9.8-13.1,18-13.1c6.6,0,12.7,3.4,16.2,9.1c0.2,0.3,0.5,0.5,0.9,0.5l0,0c0.2,0,0.3,0,0.5,0l0.1,0
		c3.5,0,6.9,1.4,9.4,3.8c2.3,2.2,3.7,5.1,4,8.3H714.2z"/>
	<path class="st0" d="M410.4,60.6H399c-0.6,0-1,0.5-1,1c0,0.6,0.5,1,1,1h11.4c0.6,0,1-0.5,1-1C411.4,61,411,60.6,410.4,60.6z"/>
	<path class="st0" d="M405.6,58.6c0.4-0.2,0.6-0.5,0.6-0.9c0-0.4-0.3-0.8-0.6-0.9c-0.1-0.1-0.3-0.1-0.4-0.1h-15.9c-0.6,0-1,0.5-1,1
		c0,0.6,0.5,1,1,1h15.9C405.4,58.7,405.5,58.7,405.6,58.6z"/>
	<path class="st0" d="M182.2,13.1c-0.5,0.5-1.2,0.8-1.9,0.8c-0.7,0-1.4-0.3-1.9-0.8c-0.4-0.4-1-0.4-1.4,0c-0.2,0.2-0.3,0.5-0.3,0.7
		c0,0.3,0.1,0.5,0.3,0.7c0.5,0.5,0.8,1.2,0.8,1.9c0,0.7-0.3,1.4-0.8,1.9c-0.2,0.2-0.3,0.5-0.3,0.7c0,0.3,0.1,0.5,0.3,0.7
		c0.2,0.2,0.5,0.3,0.7,0.3c0.3,0,0.5-0.1,0.7-0.3c0.5-0.5,1.2-0.8,1.9-0.8c0.7,0,1.4,0.3,1.9,0.8c0.2,0.2,0.5,0.3,0.7,0.3
		c0,0,0,0,0,0c0.6,0,1-0.5,1-1c0-0.3-0.1-0.6-0.3-0.8c-1-1.1-1-2.7,0.1-3.8c0.2-0.2,0.3-0.5,0.3-0.7c0-0.3-0.1-0.5-0.3-0.7
		C183.2,12.7,182.6,12.7,182.2,13.1z M180.8,17c-0.2,0-0.4,0-0.6,0c-0.2,0-0.4,0-0.5,0c0-0.2,0-0.4,0-0.6c0-0.2,0-0.4,0-0.5
		c0.4,0,0.7,0,1.1,0C180.8,16.2,180.8,16.6,180.8,17z"/>
	<path class="st0" d="M254.1,1c0-0.6-0.5-1-1-1H223c-0.6,0-1,0.5-1,1c0,0.6,0.5,1,1,1h30.1C253.7,2,254.1,1.6,254.1,1z"/>
	<path class="st0" d="M295.4,98c-2.5-3.7-6.6-5.9-11.1-5.9c-2,0-3.8,0.4-5.5,1.2c0,0,0,0,0-0.1c-2.3-3.3-6-5.2-10-5.2
		c-3.1-4.6-8.1-7.4-13.7-7.4c-6.9,0-13,4.3-15.4,10.7c-2,0.2-3.8,1.1-5.2,2.6c-1.6,1.6-2.4,3.8-2.4,6c0,0.6,0.5,1,1,1h37.4
		c-2.8,1-4.8,3.6-4.8,6.7c0,0.6,0.5,1,1,1h37.6c0.3,0,0.5-0.1,0.7-0.3c0.2-0.2,0.3-0.5,0.3-0.7c-0.1-2.6-1.2-5.1-3-6.9
		C300.4,99,298,98,295.4,98z M234.1,99c0.5-3.1,3.1-5.5,6.3-5.6c0.4,0,0.8-0.3,0.9-0.7c1.9-5.9,7.5-9.9,13.7-9.9
		c5.1,0,9.6,2.6,12.3,6.9c0.2,0.3,0.5,0.5,0.9,0.5l0,0c0.1,0,0.2,0,0.4,0c3.3,0,6.4,1.5,8.3,4.2c-1.8,1.2-3.3,2.8-4.4,4.7H234.1z
		 M267.8,106.7c0.5-2.3,2.4-4,4.8-4.1c0.4,0,0.8-0.3,0.9-0.7c1.5-4.7,5.9-7.8,10.8-7.8c4,0,7.6,2,9.7,5.4c0.2,0.3,0.5,0.5,0.9,0.5
		l0,0c0.1,0,0.2,0,0.3,0h0.1c2.1,0,4.1,0.8,5.6,2.3c1.2,1.2,2,2.8,2.3,4.5H267.8z"/>
	<path class="st0" d="M168.4,78c-0.1,0-0.1,0-0.2,0c-1.8-2.8-4.3-5.1-7.2-6.8c-3.1-1.8-6.7-2.8-10.4-2.8c-3.3,0-6.5,0.8-9.3,2.2
		c0-0.2,0-0.4-0.2-0.6c-3.6-5.1-9.4-8.1-15.6-8.1c-0.1,0-0.1,0-0.2,0c0,0-0.1,0-0.1,0c-2.3-3.5-5.3-6.4-8.9-8.5
		c-3.9-2.2-8.3-3.4-12.9-3.4c-5.6,0-10.9,1.7-15.4,5c-4.2,3.1-7.3,7.3-9.1,12.2c-3.2,0.3-6.2,1.7-8.5,4c-2.4,2.5-3.8,5.8-3.8,9.3
		c0,0.6,0.5,1,1,1h63.5c-0.1,0.2-0.2,0.4-0.3,0.7c-2.6,0.2-4.9,1.4-6.8,3.2c-2,2-3.1,4.7-3.1,7.6c0,0.6,0.5,1,1,1h60.7
		c0.3,0,0.5-0.1,0.7-0.3c0.2-0.2,0.3-0.5,0.3-0.7c-0.1-4.1-1.8-7.9-4.7-10.7C176.3,79.6,172.4,78,168.4,78z M68.8,79.6
		c0.2-2.6,1.3-5,3.2-6.9c2.1-2.1,4.8-3.3,7.8-3.4c0.4,0,0.8-0.3,0.9-0.7c1.6-4.8,4.5-8.9,8.6-11.8c4.1-3,9-4.7,14.2-4.7
		c4.2,0,8.3,1.1,11.9,3.1c3.5,2,6.4,4.9,8.5,8.3c0.2,0.3,0.5,0.5,0.9,0.5l0,0c0.2,0,0.4,0,0.6,0c5.6-0.1,10.9,2.7,14.2,7.3
		c0.1,0.1,0.2,0.2,0.3,0.3c-3.2,1.9-5.8,4.7-7.6,8.1H68.8z M123.2,92.1c0.2-1.9,1.1-3.8,2.5-5.2c1.6-1.7,3.8-2.6,6.1-2.7
		c0.4,0,0.8-0.3,0.9-0.7c2.6-7.8,9.8-13.1,18-13.1c6.6,0,12.7,3.4,16.2,9.1c0.2,0.3,0.5,0.5,0.9,0.5l0,0c0.2,0,0.3,0,0.5,0l0.1,0
		c3.5,0,6.9,1.4,9.4,3.8c2.3,2.2,3.7,5.1,4,8.3H123.2z"/>
	<path class="st0" d="M330.7,48.5c-0.8,0-1.6,0.1-2.4,0.3c-2.1-2.4-5.1-3.8-8.3-3.8c-1.9,0-3.8,0.5-5.4,1.4
		c-2.4-1.8-5.4-2.8-8.4-2.8c-5.8,0-11,3.6-13.1,9c-3.2,0.4-5.8,2.9-6.4,6.1c-0.1,0.3,0,0.6,0.2,0.8c0.2,0.2,0.5,0.4,0.8,0.4h53.2
		c0.3,0,0.5-0.1,0.7-0.3c0.2-0.2,0.3-0.5,0.3-0.8C341.3,53.1,336.5,48.5,330.7,48.5z M288.9,57.9c0.8-1.9,2.7-3.3,4.8-3.3
		c0.4,0,0.8-0.3,0.9-0.7c1.6-4.9,6.2-8.3,11.4-8.3c2.8,0,5.5,1,7.7,2.8c0.3,0.3,0.8,0.3,1.2,0.1c1.5-1,3.2-1.5,5-1.5
		c2.8,0,5.4,1.3,7.2,3.5c0.3,0.3,0.7,0.5,1.1,0.4c0.8-0.2,1.7-0.4,2.5-0.4c4.4,0,8.1,3.2,8.9,7.4H288.9z"/>
	<path class="st0" d="M357.5,9.5c0,0.6,0.5,1,1,1c0.1,0,0.3,0,0.4-0.1c0.4-0.2,0.6-0.5,0.6-0.9c0-4.1,3.3-7.4,7.4-7.4
		c0.6,0,1-0.5,1-1c0-0.6-0.5-1-1-1c-3.7,0-6.9,2.1-8.4,5.2C357,2.1,353.8,0,350.1,0c-0.6,0-1,0.5-1,1c0,0.6,0.5,1,1,1
		C354.2,2,357.5,5.4,357.5,9.5z"/>
	<path class="st0" d="M442.4,27c0.1,0,0.1,0,0.2,0l5.6-0.9c0.5-0.1,0.9-0.6,0.8-1.2c-0.1-0.5-0.6-0.9-1.2-0.8l-5.6,0.9
		c-0.5,0.1-0.9,0.6-0.8,1.2C441.5,26.7,441.9,27,442.4,27z"/>
	<path class="st0" d="M473.9,11.5c0.3,0,0.6-0.1,0.8-0.4l3.7-4.3c0.4-0.4,0.3-1.1-0.1-1.4c-0.4-0.4-1.1-0.3-1.4,0.1l-3.7,4.3
		c-0.4,0.4-0.3,1.1,0.1,1.4C473.5,11.4,473.7,11.5,473.9,11.5z"/>
	<path class="st0" d="M478.3,20.1c0.1,0.5,0.5,0.8,1,0.8c0.1,0,0.1,0,0.2,0L485,20c0.5-0.1,0.9-0.6,0.8-1.2
		c-0.1-0.5-0.6-0.9-1.2-0.8l-5.6,0.9C478.6,19,478.2,19.6,478.3,20.1z"/>
	<path class="st0" d="M476.6,15.2c0.2,0.3,0.5,0.5,0.9,0.5c0.2,0,0.3,0,0.5-0.1l4.9-2.8c0.5-0.3,0.7-0.9,0.4-1.4
		c-0.3-0.5-0.9-0.7-1.4-0.4l-4.9,2.8C476.5,14.1,476.3,14.8,476.6,15.2z"/>
	<path class="st0" d="M468.9,8.6c0.1,0,0.2,0.1,0.4,0.1c0.4,0,0.8-0.2,0.9-0.7l2-5.3c0.2-0.5-0.1-1.1-0.6-1.3
		c-0.5-0.2-1.1,0.1-1.3,0.6l-2,5.3C468.1,7.8,468.3,8.4,468.9,8.6z"/>
	<path class="st0" d="M452.8,10.9c0.2,0.2,0.5,0.4,0.8,0.4c0.2,0,0.5-0.1,0.6-0.2c0.4-0.4,0.5-1,0.1-1.4l-3.6-4.4
		c-0.4-0.4-1-0.5-1.4-0.1c-0.4,0.4-0.5,1-0.1,1.4L452.8,10.9z"/>
	<path class="st0" d="M463.8,7.7L463.8,7.7c0.6,0,1-0.4,1-1l0.1-5.6c0-0.6-0.4-1-1-1h0c-0.6,0-1,0.4-1,1l-0.1,5.6
		C462.8,7.2,463.2,7.7,463.8,7.7z"/>
	<path class="st0" d="M457.4,7.9c0.1,0.4,0.5,0.7,0.9,0.7c0.1,0,0.2,0,0.3-0.1c0.5-0.2,0.8-0.8,0.6-1.3l-1.9-5.3
		c-0.2-0.5-0.8-0.8-1.3-0.6c-0.5,0.2-0.8,0.8-0.6,1.3L457.4,7.9z"/>
	<path class="st0" d="M468.5,36.5c-0.5,0.2-0.8,0.8-0.6,1.3l1.9,5.3c0.1,0.4,0.5,0.7,0.9,0.7c0.1,0,0.2,0,0.3-0.1
		c0.5-0.2,0.8-0.8,0.6-1.3l-1.9-5.3C469.6,36.6,469.1,36.4,468.5,36.5z"/>
	<path class="st0" d="M463.5,37.4c-0.6,0-1,0.4-1,1l-0.1,5.6c0,0.6,0.4,1,1,1h0c0.6,0,1-0.4,1-1l0.1-5.6
		C464.5,37.8,464,37.4,463.5,37.4C463.5,37.4,463.5,37.4,463.5,37.4z"/>
	<path class="st0" d="M463.6,12.9c-5.3,0-9.6,4.3-9.6,9.7c0,5.3,4.3,9.7,9.6,9.7c5.3,0,9.6-4.3,9.6-9.7
		C473.3,17.2,468.9,12.9,463.6,12.9z M463.6,30.2c-4.2,0-7.6-3.4-7.6-7.6c0-4.2,3.4-7.6,7.6-7.6c4.2,0,7.6,3.4,7.6,7.6
		C471.3,26.7,467.8,30.2,463.6,30.2z"/>
	<path class="st0" d="M452.5,33.9l-3.7,4.3c-0.4,0.4-0.3,1.1,0.1,1.4c0.2,0.2,0.4,0.2,0.7,0.2c0.3,0,0.6-0.1,0.8-0.4l3.7-4.3
		c0.4-0.4,0.3-1.1-0.1-1.4C453.5,33.4,452.9,33.5,452.5,33.9z"/>
	<path class="st0" d="M457.1,37l-2,5.3c-0.2,0.5,0.1,1.1,0.6,1.3c0.1,0,0.2,0.1,0.4,0.1c0.4,0,0.8-0.2,0.9-0.7l2-5.3
		c0.2-0.5-0.1-1.1-0.6-1.3C457.9,36.2,457.3,36.5,457.1,37z"/>
	<path class="st0" d="M449.3,29.4l-4.9,2.8c-0.5,0.3-0.7,0.9-0.4,1.4c0.2,0.3,0.5,0.5,0.9,0.5c0.2,0,0.3,0,0.5-0.1l4.9-2.8
		c0.5-0.3,0.7-0.9,0.4-1.4C450.4,29.3,449.8,29.2,449.3,29.4z"/>
	<path class="st0" d="M255,40.1c0.6,0,1-0.5,1-1v-1.6h1.6c0.6,0,1-0.5,1-1c0-0.6-0.5-1-1-1H256v-1.6c0-0.6-0.5-1-1-1
		c-0.6,0-1,0.5-1,1v1.6h-1.6c-0.6,0-1,0.5-1,1c0,0.6,0.5,1,1,1h1.6v1.6C254,39.7,254.5,40.1,255,40.1z"/>
	<path class="st0" d="M773.2,2.1c-0.5,0.5-1.2,0.8-1.9,0.8c-0.7,0-1.4-0.3-1.9-0.8c-0.4-0.4-1-0.4-1.4,0c-0.2,0.2-0.3,0.5-0.3,0.7
		c0,0.3,0.1,0.5,0.3,0.7c0.5,0.5,0.8,1.2,0.8,1.9c0,0.7-0.3,1.4-0.8,1.9c-0.2,0.2-0.3,0.5-0.3,0.7c0,0.3,0.1,0.5,0.3,0.7
		c0.2,0.2,0.5,0.3,0.7,0.3c0.3,0,0.5-0.1,0.7-0.3c0.5-0.5,1.2-0.8,1.9-0.8c0.7,0,1.4,0.3,1.9,0.8c0.2,0.2,0.5,0.3,0.7,0.3
		c0,0,0,0,0,0c0.6,0,1-0.5,1-1c0-0.3-0.1-0.6-0.3-0.8c-1-1.1-1-2.7,0.1-3.8c0.2-0.2,0.3-0.5,0.3-0.7c0-0.3-0.1-0.5-0.3-0.7
		C774.2,1.7,773.6,1.7,773.2,2.1z M771.8,6c-0.2,0-0.4,0-0.6,0c-0.2,0-0.4,0-0.5,0c0-0.2,0-0.4,0-0.6c0-0.2,0-0.4,0-0.5
		c0.4,0,0.7,0,1.1,0C771.8,5.2,771.8,5.6,771.8,6z"/>
	<path class="st0" d="M323.9,17.6c1.2,0,2.1,0.9,2.1,2.1c0,0.6,0.5,1,1,1c0.6,0,1-0.5,1-1c0-1.2,0.9-2.1,2.1-2.1h0c0,0,0,0,0,0h0
		c0.5,0,1-0.5,1-1c0-0.6-0.5-1-1-1c0,0,0,0,0,0c-1.2,0-2.1-0.9-2.1-2.1c0-0.6-0.5-1-1-1h0c-0.6,0-1,0.5-1,1c0,0.6-0.2,1.1-0.6,1.5
		c-0.4,0.4-0.9,0.6-1.5,0.6c0,0,0,0,0,0c-0.6,0-1,0.5-1,1C322.9,17.2,323.4,17.6,323.9,17.6z M326.8,16.4c0.1-0.1,0.1-0.1,0.2-0.2
		c0.1,0.1,0.3,0.3,0.4,0.4c-0.1,0.1-0.3,0.3-0.4,0.4c-0.1-0.1-0.3-0.3-0.4-0.4C326.7,16.6,326.8,16.5,326.8,16.4z"/>
	<path class="st0" d="M240.3,6.6c0,0.6,0.5,1,1,1h21.6c0.6,0,1-0.5,1-1c0-0.6-0.5-1-1-1h-21.6C240.8,5.6,240.3,6.1,240.3,6.6z"/>
	<path class="st0" d="M444.6,12.4l4.9,2.9c0.2,0.1,0.3,0.1,0.5,0.1c0.3,0,0.7-0.2,0.9-0.5c0.3-0.5,0.1-1.1-0.4-1.4l-4.9-2.9
		c-0.5-0.3-1.1-0.1-1.4,0.4C444,11.5,444.1,12.1,444.6,12.4z"/>
	<path class="st0" d="M822.1,30c0-0.6-0.5-1-1-1H791c-0.6,0-1,0.5-1,1c0,0.6,0.5,1,1,1h30.1C821.7,31,822.1,30.6,822.1,30z"/>
	<path class="st0" d="M81.3,26.4c2.5,0,4.6,2.1,4.6,4.6c0,0.6,0.5,1,1,1c0.6,0,1-0.5,1-1c0-2.5,2.1-4.6,4.6-4.6c0.6,0,1-0.5,1-1
		c0-0.6-0.5-1-1-1c-2.4,0-4.4,1.2-5.6,3.1c-1.2-1.9-3.2-3.1-5.6-3.1c-0.6,0-1,0.5-1,1C80.3,25.9,80.8,26.4,81.3,26.4z"/>
	<path class="st0" d="M116,13c2.2,0,4,1.8,4,4c0,0.6,0.5,1,1,1s1-0.5,1-1c0-2.2,1.8-4,4-4c0.6,0,1-0.5,1-1c0-0.6-0.5-1-1-1
		c-2.1,0-3.9,1.1-5,2.7c-1.1-1.6-2.9-2.7-5-2.7c-0.6,0-1,0.5-1,1C115,12.6,115.5,13,116,13z"/>
	<path class="st0" d="M364,9.1c0,0.6,0.5,1,1,1c2.5,0,4.6,2.1,4.6,4.6c0,0.6,0.5,1,1,1c0.6,0,1-0.5,1-1c0-2.5,2.1-4.6,4.6-4.6
		c0.6,0,1-0.5,1-1c0-0.6-0.5-1-1-1c-2.4,0-4.4,1.2-5.6,3.1c-1.2-1.9-3.2-3.1-5.6-3.1C364.5,8.1,364,8.6,364,9.1z"/>
	<path class="st0" d="M473,34c-0.4,0.4-0.5,1-0.1,1.4l3.6,4.4c0.2,0.2,0.5,0.4,0.8,0.4c0.2,0,0.5-0.1,0.6-0.2c0.4-0.4,0.5-1,0.1-1.4
		l-3.6-4.4C474.1,33.7,473.5,33.7,473,34z"/>
	<path class="st0" d="M442.3,19.5l5.5,1c0.1,0,0.1,0,0.2,0c0.5,0,0.9-0.3,1-0.8c0.1-0.5-0.3-1.1-0.8-1.2l-5.5-1
		c-0.5-0.1-1.1,0.3-1.2,0.8C441.4,18.9,441.8,19.4,442.3,19.5z"/>
	<path class="st0" d="M384.2,54.8h28.9c0.6,0,1-0.5,1-1c0-0.6-0.5-1-1-1h-28.9c-0.6,0-1,0.5-1,1C383.2,54.3,383.7,54.8,384.2,54.8z"
		/>
	<path class="st0" d="M402.9,8.1h1.9V10c0,0.6,0.5,1,1,1c0.6,0,1-0.5,1-1V8.1h1.9c0.6,0,1-0.5,1-1c0-0.6-0.5-1-1-1h-1.9V4.2
		c0-0.6-0.5-1-1-1c-0.6,0-1,0.5-1,1v1.9h-1.9c-0.6,0-1,0.5-1,1C401.9,7.6,402.3,8.1,402.9,8.1z"/>
</g>
</svg>
