<?xml version="1.0" encoding="utf-8"?>
<!-- Generator: Adobe Illustrator 20.0.0, SVG Export Plug-In . SVG Version: 6.00 Build 0)  -->
<svg version="1.1" id="Layer_1" xmlns="http://www.w3.org/2000/svg" xmlns:xlink="http://www.w3.org/1999/xlink" x="0px" y="0px"
	 viewBox="0 0 40 40" style="enable-background:new 0 0 40 40;" xml:space="preserve">
<style type="text/css">
	.st0{fill:#FFFFFF;}
</style>
<g>
	<path class="st0" d="M20.6,29.4h5V34c-1,0.7-2.2,1-3.3,1H5.2C2.1,35,0,33.1,0,29.9c0-4.4,1-11.2,6.8-11.2c0.3,0,0.5,0.1,0.8,0.3
		c1.9,1.5,3.8,2.4,6.2,2.4s4.3-0.9,6.2-2.4c0.2-0.2,0.4-0.3,0.8-0.3c1.7,0,3.1,0.6,4.2,1.9h-4.4c-1.4,0-2.5,1.1-2.5,2.5v3.8
		C18.1,28.2,19.3,29.4,20.6,29.4z M6.2,12.5C6.2,8.4,9.6,5,13.8,5s7.5,3.4,7.5,7.5S17.9,20,13.8,20S6.2,16.6,6.2,12.5z M39.4,22.5
		c0.3,0,0.6,0.3,0.6,0.6v3.8c0,0.3-0.3,0.6-0.6,0.6h-6.9v6.9c0,0.3-0.3,0.6-0.6,0.6h-3.8c-0.3,0-0.6-0.3-0.6-0.6v-6.9h-6.9
		c-0.3,0-0.6-0.3-0.6-0.6v-3.8c0-0.3,0.3-0.6,0.6-0.6h6.9v-6.9c0-0.3,0.3-0.6,0.6-0.6h3.8c0.3,0,0.6,0.3,0.6,0.6v6.9H39.4z"/>
</g>
</svg>
