<?xml version="1.0" encoding="utf-8"?>
<!-- Generator: Adobe Illustrator 20.0.0, SVG Export Plug-In . SVG Version: 6.00 Build 0)  -->
<svg version="1.1" id="Layer_1" xmlns="http://www.w3.org/2000/svg" xmlns:xlink="http://www.w3.org/1999/xlink" x="0px" y="0px"
	 viewBox="0 0 26 26" style="enable-background:new 0 0 26 26;" xml:space="preserve">
<style type="text/css">
	.st0{fill:#FFFFFF;}
</style>
<g>
	<g>
		<path class="st0" d="M22,13.3c-0.1-0.2-0.1-0.3,0-0.5c0.4-0.5,0.7-1,1.1-1.5c0.7-1.1,1.2-2.2,1.4-3.4c0.2-1.4-0.4-2.8-1.6-3.5
			c-1.2-0.7-2.6-0.7-3.9-0.4c-0.5,0.1-0.8,0.7-0.6,1.2c0.2,0.5,0.6,0.7,1.2,0.6c0.6-0.1,1.1-0.1,1.7,0c0.9,0.1,1.4,0.6,1.4,1.4
			c0,0.4-0.1,0.8-0.2,1.2c-0.4,1.1-1,2.1-1.7,3c-0.1,0.2-0.2,0.2-0.4,0c-0.6-0.5-1.1-1.1-1.7-1.6c-1.9-1.6-4-3-6.2-4.1
			c-0.6-0.3-1.1-0.1-1.3,0.4c-0.2,0.5,0,1,0.5,1.3c3.9,2,7.3,4.6,9.8,8.2c0.6,0.9,1.1,1.8,1.2,2.9c0.1,0.7-0.2,1.2-0.9,1.5
			c-0.2,0.1-0.4,0.1-0.6,0.2c-1,0.2-2,0-3-0.2c-0.3-0.1-0.4-0.2-0.3-0.5c0.5-1.8,0.7-3.6,0.8-5.5c0-0.2,0-0.4,0-0.5
			c0-0.5-0.4-0.9-0.9-0.9c-0.5,0-0.9,0.4-1,0.9c0,1.2-0.1,2.4-0.3,3.6c-0.3,1.6-0.7,3.2-1.4,4.7c-0.3,0.5-0.6,1-1,1.4
			c-0.6,0.6-1.2,0.6-1.9,0c-0.3-0.3-0.6-0.6-0.8-1c-0.3-0.5-0.9-0.6-1.3-0.3c-0.4,0.3-0.5,0.8-0.2,1.3c0.3,0.4,0.6,0.9,1,1.2
			c0.8,0.8,1.7,1.2,2.9,1c0.9-0.2,1.5-0.7,2.1-1.4c0.6-0.7,1-1.4,1.3-2.2c0.1-0.2,0.2-0.3,0.4-0.2c0.3,0.1,0.5,0.1,0.8,0.2
			c1.3,0.3,2.5,0.4,3.8,0c1.5-0.4,2.4-1.6,2.4-3.2c0-1-0.3-2-0.7-2.9C23.3,14.9,22.6,14.1,22,13.3z M6.7,15.6c0.6,0.5,1.1,1,1,1.8
			c0,0,0,0,0,0.1c0.1,0.4,0.5,0.7,0.9,0.7c0.4,0,0.8-0.2,0.9-0.6c0.1-0.2,0.1-0.5,0-0.7c-0.2-1.1-0.2-2.2-0.3-3.3
			c0-1.3,0-2.6,0.2-3.8C9.7,8.1,10,6.5,10.7,5c0.3-0.8,0.7-1.5,1.4-2.1c0.6-0.5,1.2-0.6,1.8,0c0.4,0.3,0.6,0.7,0.9,1.1
			c0.6,1,0.9,2.1,1.2,3.3c0.2,0.6,0.6,0.9,1.1,0.8c0.6-0.1,0.9-0.6,0.7-1.2c-0.3-1.4-0.8-2.7-1.6-4c-0.4-0.6-0.8-1.2-1.4-1.6
			c-1.4-1-2.9-0.9-4.2,0.3C9.9,2.3,9.3,3.3,8.9,4.3c-1,2.4-1.3,4.8-1.4,7.3c0,0.6,0,1.3,0,2c-0.1-0.1-0.2-0.1-0.2-0.1
			c-1.1-1.1-2.1-2.2-2.9-3.6C3.9,9.2,3.5,8.5,3.4,7.6C3.3,6.8,3.6,6.2,4.4,6c0.3-0.1,0.7-0.2,1.1-0.2c0.5,0,1,0.1,1.4,0.1
			c0.5,0,0.8-0.4,0.9-0.8c0.1-0.4-0.3-0.9-0.7-1C5.8,3.8,4.6,3.8,3.4,4.3C2.2,4.8,1.6,5.8,1.5,7.2c0,1.3,0.4,2.4,1,3.4
			C3.6,12.5,5.1,14.2,6.7,15.6z M15.7,17.6c-0.2-0.7-0.9-0.9-1.5-0.5c-1.5,1-3.1,1.8-4.8,2.4c-1.2,0.4-2.4,0.7-3.7,0.8
			c-0.3,0-0.6,0-0.9-0.1c-1-0.2-1.5-0.8-1.4-1.7c0-0.4,0.1-0.7,0.3-1.1c0.2-0.7,0.6-1.2,1-1.8c0.3-0.5,0.1-1-0.3-1.3
			c-0.4-0.3-1-0.2-1.3,0.3c-0.7,1.1-1.3,2.2-1.5,3.5c-0.3,1.7,0.6,3.2,2.3,3.8C4.9,22.2,6,22.2,7.1,22c3-0.5,5.6-1.8,8.1-3.4
			C15.6,18.4,15.8,18,15.7,17.6z M15.2,12.8c0-1.2-1-2.1-2.2-2.1c-1.2,0-2.1,1-2.1,2.1c0,1.2,1,2.1,2.2,2.1
			C14.2,15,15.2,14,15.2,12.8z"/>
	</g>
</g>
</svg>
